[
  {
    "Title": "“We increased production capacity and work efficiency by 20% by renting KAPASİTEMATİK”",
    "Content": "-",
    "Url": "referances/we-increased-production-capacity-and-work-efficiency-by-20-by-renting-kapasitematik",
    "Date": "01 Ocak 2020",
    "ListThumb": "/images/New Project (1).png"
  },
  {
    "Title": "Mes Dokum Focused On Value-Added Production With Kapasitematik",
    "Content": "-",
    "Url": "referances/mes-dokum-focused-on-value-added-production-with-kapasitematik",
    "Date": "02 Ocak 2020",
    "ListThumb": "/images/mes-dokum.jpg"
  },
  {
    "Title": "You Never Break In Your Production Area With Kapasitematik",
    "Content": "-",
    "Url": "referances/you-never-break-in-your-production-area-with-kapasitematik",
    "Date": "03 Ocak 2020",
    "ListThumb": "/images/keba.jpg"
  },
  {
    "Title": "Gürsan Alüminyum: 'Our productivity has increased, our shift has decreased thanks to Kapasitematik'",
    "Content": "-",
    "Url": "referances/our-productivity-has-increased-our-shift-has-decreased-thanks-to-kapasitematik",
    "Date": "04 Ocak 2020",
    "ListThumb": "/images/Yeni Proje (35).jpg"
  },
  {
    "Title": "Burak Egeli, Owner of Pimsun Makine: We See Kapasitematik as a Obligation, Not a Need",
    "Content": "-",
    "Url": "referances/we-see-kapasitematik-as-a-obligation-not-a-need",
    "Date": "05 Ocak 2020",
    "ListThumb": "/images/pimsunn.jpg"
  },
  {
    "Title": "PIMSUN Makine: Kapasitematik presents us the aspects we need to improve in a report",
    "Content": "-",
    "Url": "referances/pimsun-makine-kapasitematik-presents-us-the-aspects-we-need-to-improve-in-a-report",
    "Date": "05 Ocak 2020",
    "ListThumb": "/images/pimsunn.jpg"
  }
]